<?xml version="1.0" encoding="utf-8"?><svg xmlns="http://www.w3.org/2000/svg" xmlns:xlink="http://www.w3.org/1999/xlink"><symbol viewBox="0 0 20 20" fill="none" id="arrowLeft" xmlns="http://www.w3.org/2000/svg">
<path d="M12.4741 15L7.49141 10L12.4741 5" stroke="#999999" stroke-width="1.5" stroke-linecap="round" stroke-linejoin="round"/>
</symbol><symbol viewBox="0 0 20 20" fill="none" id="arrowRight" xmlns="http://www.w3.org/2000/svg">
<path d="M7.49136 15L12.4741 10L7.49136 5" stroke="#999999" stroke-width="1.5" stroke-linecap="round" stroke-linejoin="round"/>
</symbol><symbol viewBox="0 0 20 20" fill="none" id="plus" xmlns="http://www.w3.org/2000/svg">
<path d="M10 1V19" stroke="#999999" stroke-width="1.5" stroke-linecap="round"/>
<path d="M1 10H19" stroke="#999999" stroke-width="1.5" stroke-linecap="round"/>
</symbol></svg>